{"response": {"status": "ok", "orderBy": "relevance", "pageSize": 10, "userTier": "developer", "results": [{"webUrl": "https://www.theguardian.com/sport/blog/2017/jan/26/roger-federer-age-stan-wawrinka-australian-open-2017-final", "sectionName": "Sport", "webTitle": "Resurgent Roger Federer defies age and expectations to dazzle Australia | Kevin Mitchell", "sectionId": "sport", "apiUrl": "https://content.guardianapis.com/sport/blog/2017/jan/26/roger-federer-age-stan-wawrinka-australian-open-2017-final", "isHosted": false, "webPublicationDate": "2017-01-26T14:15:54Z", "type": "article", "id": "sport/blog/2017/jan/26/roger-federer-age-stan-wawrinka-australian-open-2017-final"}, {"webUrl": "https://www.theguardian.com/sport/2017/jan/29/roger-federer-rafael-nadal-australian-open-final-report", "sectionName": "Sport", "webTitle": "Roger Federer beats Rafael Nadal in thrilling Australian Open final", "sectionId": "sport", "apiUrl": "https://content.guardianapis.com/sport/2017/jan/29/roger-federer-rafael-nadal-australian-open-final-report", "isHosted": false, "webPublicationDate": "2017-01-29T12:16:40Z", "type": "article", "id": "sport/2017/jan/29/roger-federer-rafael-nadal-australian-open-final-report"}, {"webUrl": "https://www.theguardian.com/sport/2017/jan/26/roger-federer-beats-stan-wawrinka-to-reach-australian-open-final", "sectionName": "Sport", "webTitle": "Roger Federer beats Stan Wawrinka to reach Australian Open final", "sectionId": "sport", "apiUrl": "https://content.guardianapis.com/sport/2017/jan/26/roger-federer-beats-stan-wawrinka-to-reach-australian-open-final", "isHosted": false, "webPublicationDate": "2017-01-26T12:06:57Z", "type": "article", "id": "sport/2017/jan/26/roger-federer-beats-stan-wawrinka-to-reach-australian-open-final"}, {"webUrl": "https://www.theguardian.com/sport/2017/mar/19/roger-federer-defy-time-critics-win-indian-wells", "sectionName": "Sport", "webTitle": "Roger Federer continues to defy time and critics with Indian Wells win", "sectionId": "sport", "apiUrl": "https://content.guardianapis.com/sport/2017/mar/19/roger-federer-defy-time-critics-win-indian-wells", "isHosted": false, "webPublicationDate": "2017-03-19T23:41:25Z", "type": "article", "id": "sport/2017/mar/19/roger-federer-defy-time-critics-win-indian-wells"}, {"webUrl": "https://www.theguardian.com/sport/live/2017/mar/19/roger-federer-stan-wawrinka-indian-wells-final-live", "sectionName": "Sport", "webTitle": "Roger Federer defeats Stan Wawrinka for Indian Wells title \u2013\u00a0as it happened", "sectionId": "sport", "apiUrl": "https://content.guardianapis.com/sport/live/2017/mar/19/roger-federer-stan-wawrinka-indian-wells-final-live", "isHosted": false, "webPublicationDate": "2017-03-19T23:28:04Z", "type": "liveblog", "id": "sport/live/2017/mar/19/roger-federer-stan-wawrinka-indian-wells-final-live"}, {"webUrl": "https://www.theguardian.com/sport/2017/mar/16/nick-kyrgios-beats-novak-djokovic-indian-wells-roger-federer-rafael-nadal", "sectionName": "Sport", "webTitle": "Nick Kyrgios shocks Novak Djokovic to set up Roger Federer clash", "sectionId": "sport", "apiUrl": "https://content.guardianapis.com/sport/2017/mar/16/nick-kyrgios-beats-novak-djokovic-indian-wells-roger-federer-rafael-nadal", "isHosted": false, "webPublicationDate": "2017-03-16T02:54:36Z", "type": "article", "id": "sport/2017/mar/16/nick-kyrgios-beats-novak-djokovic-indian-wells-roger-federer-rafael-nadal"}, {"webUrl": "https://www.theguardian.com/sport/2017/feb/26/roger-federer-andy-murray-dubai-championship", "sectionName": "Sport", "webTitle": "Roger Federer rejuvenated and ready to write his latest script in Dubai", "sectionId": "sport", "apiUrl": "https://content.guardianapis.com/sport/2017/feb/26/roger-federer-andy-murray-dubai-championship", "isHosted": false, "webPublicationDate": "2017-02-26T19:16:25Z", "type": "article", "id": "sport/2017/feb/26/roger-federer-andy-murray-dubai-championship"}, {"webUrl": "https://www.theguardian.com/sport/blog/2017/jan/29/roger-federer-peerless-rafael-nadal-made-each-other-great-australian-open-final-tennis", "sectionName": "Sport", "webTitle": "Roger Federer is peerless but he and Rafael Nadal have made each other great | Kevin Mitchell", "sectionId": "sport", "apiUrl": "https://content.guardianapis.com/sport/blog/2017/jan/29/roger-federer-peerless-rafael-nadal-made-each-other-great-australian-open-final-tennis", "isHosted": false, "webPublicationDate": "2017-01-29T17:44:52Z", "type": "article", "id": "sport/blog/2017/jan/29/roger-federer-peerless-rafael-nadal-made-each-other-great-australian-open-final-tennis"}, {"webUrl": "https://www.theguardian.com/sport/2017/jan/28/roger-federer-rafeal-nadal-unexpected-encore-australian-open-tennis", "sectionName": "Sport", "webTitle": "Roger Federer and Rafael Nadal roll back years for unexpected encore", "sectionId": "sport", "apiUrl": "https://content.guardianapis.com/sport/2017/jan/28/roger-federer-rafeal-nadal-unexpected-encore-australian-open-tennis", "isHosted": false, "webPublicationDate": "2017-01-28T17:18:23Z", "type": "article", "id": "sport/2017/jan/28/roger-federer-rafeal-nadal-unexpected-encore-australian-open-tennis"}, {"webUrl": "https://www.theguardian.com/sport/live/2017/jan/24/australian-open-2017-day-nine-roger-federer-v-mischa-zverev-live", "sectionName": "Sport", "webTitle": "Australian Open 2017: Roger Federer beats Mischa Zverev to reach semis \u2013 as it happened", "sectionId": "sport", "apiUrl": "https://content.guardianapis.com/sport/live/2017/jan/24/australian-open-2017-day-nine-roger-federer-v-mischa-zverev-live", "isHosted": false, "webPublicationDate": "2017-01-24T10:06:51Z", "type": "liveblog", "id": "sport/live/2017/jan/24/australian-open-2017-day-nine-roger-federer-v-mischa-zverev-live"}], "startIndex": 1, "currentPage": 1, "total": 4571, "pages": 458}}