{"response": {"status": "ok", "orderBy": "newest", "pageSize": 10, "userTier": "developer", "results": [{"webUrl": "https://www.theguardian.com/sport/2017/mar/28/t20-tournament-england-world-cup-ecb", "sectionName": "Sport", "webTitle": "Fudge over new T20 tournament will damage England\u2019s World Cup chances", "sectionId": "sport", "apiUrl": "https://content.guardianapis.com/sport/2017/mar/28/t20-tournament-england-world-cup-ecb", "isHosted": false, "webPublicationDate": "2017-03-28T07:34:45Z", "type": "article", "id": "sport/2017/mar/28/t20-tournament-england-world-cup-ecb"}, {"webUrl": "https://www.theguardian.com/sport/live/2017/mar/28/india-v-australia-fourth-test-day-four-live", "sectionName": "Sport", "webTitle": "India blaze their way to 2-1 Border-Gavaskar series win - as it happened", "sectionId": "sport", "apiUrl": "https://content.guardianapis.com/sport/live/2017/mar/28/india-v-australia-fourth-test-day-four-live", "isHosted": false, "webPublicationDate": "2017-03-28T06:16:01Z", "type": "liveblog", "id": "sport/live/2017/mar/28/india-v-australia-fourth-test-day-four-live"}, {"webUrl": "https://www.theguardian.com/sport/2017/mar/28/india-australia-fourth-test-match-report", "sectionName": "Sport", "webTitle": "India knock off runs to secure victory and claim series win over Australia", "sectionId": "sport", "apiUrl": "https://content.guardianapis.com/sport/2017/mar/28/india-australia-fourth-test-match-report", "isHosted": false, "webPublicationDate": "2017-03-28T05:32:02Z", "type": "article", "id": "sport/2017/mar/28/india-australia-fourth-test-match-report"}, {"webUrl": "https://www.theguardian.com/sport/2017/mar/28/adopt-a-lion-new-zealand-rugby-fans-offer-to-host-british-for-free", "sectionName": "Sport", "webTitle": "Adopt-a-Lion: New Zealand rugby fans offer to host British and Irish free of charge", "sectionId": "sport", "apiUrl": "https://content.guardianapis.com/sport/2017/mar/28/adopt-a-lion-new-zealand-rugby-fans-offer-to-host-british-for-free", "isHosted": false, "webPublicationDate": "2017-03-28T01:37:00Z", "type": "article", "id": "sport/2017/mar/28/adopt-a-lion-new-zealand-rugby-fans-offer-to-host-british-for-free"}, {"webUrl": "https://www.theguardian.com/sport/2017/mar/27/team-sky-bradley-wiggins-doctor-british-cycling-mystery-package", "sectionName": "Sport", "webTitle": "\u2018Mystery package\u2019 doctor admits Team Sky had no medicines policy", "sectionId": "sport", "apiUrl": "https://content.guardianapis.com/sport/2017/mar/27/team-sky-bradley-wiggins-doctor-british-cycling-mystery-package", "isHosted": false, "webPublicationDate": "2017-03-27T23:01:05Z", "type": "article", "id": "sport/2017/mar/27/team-sky-bradley-wiggins-doctor-british-cycling-mystery-package"}, {"webUrl": "https://www.theguardian.com/sport/2017/mar/27/joe-root-england-test-captain-twenty-20-tv", "sectionName": "Sport", "webTitle": "Joe Root backs new T20 plan but says it should be free to air for fans", "sectionId": "sport", "apiUrl": "https://content.guardianapis.com/sport/2017/mar/27/joe-root-england-test-captain-twenty-20-tv", "isHosted": false, "webPublicationDate": "2017-03-27T22:21:04Z", "type": "article", "id": "sport/2017/mar/27/joe-root-england-test-captain-twenty-20-tv"}, {"webUrl": "https://www.theguardian.com/sport/2017/mar/27/tom-brady-retirement-date-new-england-patriots-nfl", "sectionName": "Sport", "webTitle": "Tom Brady willing to play another seven years, says Patriots owner", "sectionId": "sport", "apiUrl": "https://content.guardianapis.com/sport/2017/mar/27/tom-brady-retirement-date-new-england-patriots-nfl", "isHosted": false, "webPublicationDate": "2017-03-27T22:16:32Z", "type": "article", "id": "sport/2017/mar/27/tom-brady-retirement-date-new-england-patriots-nfl"}, {"webUrl": "https://www.theguardian.com/sport/2017/mar/27/dustin-johnson-masters-self-belief-wgc-match-play", "sectionName": "Sport", "webTitle": "Dustin Johnson on top of the world but favourites rarely prosper at Augusta | Ewan Murray", "sectionId": "sport", "apiUrl": "https://content.guardianapis.com/sport/2017/mar/27/dustin-johnson-masters-self-belief-wgc-match-play", "isHosted": false, "webPublicationDate": "2017-03-27T19:00:46Z", "type": "article", "id": "sport/2017/mar/27/dustin-johnson-masters-self-belief-wgc-match-play"}, {"webUrl": "https://www.theguardian.com/sport/blog/2017/mar/27/oakland-raiders-move-las-vegas-nfl-sports-gambling", "sectionName": "Sport", "webTitle": "NFL's addiction to free public money fuels Raiders move to Las Vegas", "sectionId": "sport", "apiUrl": "https://content.guardianapis.com/sport/blog/2017/mar/27/oakland-raiders-move-las-vegas-nfl-sports-gambling", "isHosted": false, "webPublicationDate": "2017-03-27T18:47:22Z", "type": "article", "id": "sport/blog/2017/mar/27/oakland-raiders-move-las-vegas-nfl-sports-gambling"}, {"webUrl": "https://www.theguardian.com/sport/2017/mar/27/twenty20-cricket-tom-harrison-ecbv", "sectionName": "Sport", "webTitle": "New Twenty20 tournament will \u2018future-proof\u2019 cricket, says ECB\u2019s Tom Harrison", "sectionId": "sport", "apiUrl": "https://content.guardianapis.com/sport/2017/mar/27/twenty20-cricket-tom-harrison-ecbv", "isHosted": false, "webPublicationDate": "2017-03-27T18:11:27Z", "type": "article", "id": "sport/2017/mar/27/twenty20-cricket-tom-harrison-ecbv"}], "startIndex": 1, "currentPage": 1, "total": 144895, "pages": 14490}}